{
    "name": "OpenUnitySolutions.AutomationUtilities.Editor",
    "rootNamespace": "OpenUnitySolutions.AutomationUtilities.Editor",
    "references": [
        "OpenUnitySolutions.AutomationUtilities"
    ],
    "includePlatforms": [
        "Editor"
    ],
    "excludePlatforms": [],
    "allowUnsafeCode": false,
    "overrideReferences": false,
    "precompiledReferences": [],
    "autoReferenced": true,
    "defineConstraints": [],
    "versionDefines": [],
    "noEngineReferences": false
}